^C:\USERS\MAGSHIMIM\DESKTOP\MAGSHIMIM\C LAUNGUAGH\SEMESTER 2\ANTIVIRUS PROJECT\ANTIVIRUS\ANTIVIRUS\ANTIV1.C
C:\USERS\MAGSHIMIM\DESKTOP\MAGSHIMIM\C LAUNGUAGH\SEMESTER 2\ANTIVIRUS PROJECT\ANTIVIRUS\ANTIVIRUS\DEBUG\VC142.PDB
C:\USERS\MAGSHIMIM\DESKTOP\MAGSHIMIM\C LAUNGUAGH\SEMESTER 2\ANTIVIRUS PROJECT\ANTIVIRUS\ANTIVIRUS\DEBUG\VC142.IDB
C:\USERS\MAGSHIMIM\DESKTOP\MAGSHIMIM\C LAUNGUAGH\SEMESTER 2\ANTIVIRUS PROJECT\ANTIVIRUS\ANTIVIRUS\DEBUG\ANTIV1.OBJ
