^C:\USERS\MAGSHIMIM\DESKTOP\MAGSHIMIM\C LAUNGUAGH\SEMESTER 2\GIF FINAL PROJECT\GIF_PROJECT\GIF_PROJECT\LINKEDLIST.C|C:\USERS\MAGSHIMIM\DESKTOP\MAGSHIMIM\C LAUNGUAGH\SEMESTER 2\GIF FINAL PROJECT\GIF_PROJECT\GIF_PROJECT\PROG.C
C:\USERS\MAGSHIMIM\DESKTOP\MAGSHIMIM\C LAUNGUAGH\SEMESTER 2\GIF FINAL PROJECT\GIF_PROJECT\GIF_PROJECT\X64\DEBUG\VC142.PDB
C:\USERS\MAGSHIMIM\DESKTOP\MAGSHIMIM\C LAUNGUAGH\SEMESTER 2\GIF FINAL PROJECT\GIF_PROJECT\GIF_PROJECT\X64\DEBUG\VC142.IDB
C:\USERS\MAGSHIMIM\DESKTOP\MAGSHIMIM\C LAUNGUAGH\SEMESTER 2\GIF FINAL PROJECT\GIF_PROJECT\GIF_PROJECT\X64\DEBUG\PROG.OBJ
C:\USERS\MAGSHIMIM\DESKTOP\MAGSHIMIM\C LAUNGUAGH\SEMESTER 2\GIF FINAL PROJECT\GIF_PROJECT\GIF_PROJECT\X64\DEBUG\LINKEDLIST.OBJ
^C:\USERS\MAGSHIMIM\DESKTOP\MAGSHIMIM\C LAUNGUAGH\SEMESTER 2\GIF FINAL PROJECT\GIF_PROJECT\GIF_PROJECT\LINKEDLIST.C|C:\USERS\MAGSHIMIM\DESKTOP\MAGSHIMIM\C LAUNGUAGH\SEMESTER 2\GIF FINAL PROJECT\GIF_PROJECT\GIF_PROJECT\PROG.C|C:\USERS\MAGSHIMIM\DESKTOP\MAGSHIMIM\C LAUNGUAGH\SEMESTER 2\GIF FINAL PROJECT\GIF_PROJECT\GIF_PROJECT\VIEW.C
C:\USERS\MAGSHIMIM\DESKTOP\MAGSHIMIM\C LAUNGUAGH\SEMESTER 2\GIF FINAL PROJECT\GIF_PROJECT\GIF_PROJECT\X64\DEBUG\VC142.PDB
C:\USERS\MAGSHIMIM\DESKTOP\MAGSHIMIM\C LAUNGUAGH\SEMESTER 2\GIF FINAL PROJECT\GIF_PROJECT\GIF_PROJECT\X64\DEBUG\VC142.IDB
C:\USERS\MAGSHIMIM\DESKTOP\MAGSHIMIM\C LAUNGUAGH\SEMESTER 2\GIF FINAL PROJECT\GIF_PROJECT\GIF_PROJECT\X64\DEBUG\VIEW.OBJ
C:\USERS\MAGSHIMIM\DESKTOP\MAGSHIMIM\C LAUNGUAGH\SEMESTER 2\GIF FINAL PROJECT\GIF_PROJECT\GIF_PROJECT\X64\DEBUG\PROG.OBJ
C:\USERS\MAGSHIMIM\DESKTOP\MAGSHIMIM\C LAUNGUAGH\SEMESTER 2\GIF FINAL PROJECT\GIF_PROJECT\GIF_PROJECT\X64\DEBUG\LINKEDLIST.OBJ
^C:\USERS\MAGSHIMIM\DESKTOP\MAGSHIMIM\C LAUNGUAGH\SEMESTER 2\GIF FINAL PROJECT\GIF_PROJECT\GIF_PROJECT\LINKEDLIST.C|C:\USERS\MAGSHIMIM\DESKTOP\MAGSHIMIM\C LAUNGUAGH\SEMESTER 2\GIF FINAL PROJECT\GIF_PROJECT\GIF_PROJECT\VIEW.C
C:\USERS\MAGSHIMIM\DESKTOP\MAGSHIMIM\C LAUNGUAGH\SEMESTER 2\GIF FINAL PROJECT\GIF_PROJECT\GIF_PROJECT\X64\DEBUG\VC142.PDB
C:\USERS\MAGSHIMIM\DESKTOP\MAGSHIMIM\C LAUNGUAGH\SEMESTER 2\GIF FINAL PROJECT\GIF_PROJECT\GIF_PROJECT\X64\DEBUG\VC142.IDB
C:\USERS\MAGSHIMIM\DESKTOP\MAGSHIMIM\C LAUNGUAGH\SEMESTER 2\GIF FINAL PROJECT\GIF_PROJECT\GIF_PROJECT\X64\DEBUG\VIEW.OBJ
C:\USERS\MAGSHIMIM\DESKTOP\MAGSHIMIM\C LAUNGUAGH\SEMESTER 2\GIF FINAL PROJECT\GIF_PROJECT\GIF_PROJECT\X64\DEBUG\LINKEDLIST.OBJ
^C:\USERS\MAGSHIMIM\DESKTOP\MAGSHIMIM\C LAUNGUAGH\SEMESTER 2\GIF FINAL PROJECT\GIF_PROJECT\GIF_PROJECT\LINKEDLIST.C
C:\USERS\MAGSHIMIM\DESKTOP\MAGSHIMIM\C LAUNGUAGH\SEMESTER 2\GIF FINAL PROJECT\GIF_PROJECT\GIF_PROJECT\X64\DEBUG\VC142.PDB
C:\USERS\MAGSHIMIM\DESKTOP\MAGSHIMIM\C LAUNGUAGH\SEMESTER 2\GIF FINAL PROJECT\GIF_PROJECT\GIF_PROJECT\X64\DEBUG\VC142.IDB
C:\USERS\MAGSHIMIM\DESKTOP\MAGSHIMIM\C LAUNGUAGH\SEMESTER 2\GIF FINAL PROJECT\GIF_PROJECT\GIF_PROJECT\X64\DEBUG\LINKEDLIST.OBJ
^C:\USERS\MAGSHIMIM\DESKTOP\MAGSHIMIM\C LAUNGUAGH\SEMESTER 2\GIF FINAL PROJECT\GIF_PROJECT\GIF_PROJECT\PROG.C|C:\USERS\MAGSHIMIM\DESKTOP\MAGSHIMIM\C LAUNGUAGH\SEMESTER 2\GIF FINAL PROJECT\GIF_PROJECT\GIF_PROJECT\VIEW.C
C:\USERS\MAGSHIMIM\DESKTOP\MAGSHIMIM\C LAUNGUAGH\SEMESTER 2\GIF FINAL PROJECT\GIF_PROJECT\GIF_PROJECT\X64\DEBUG\VC142.PDB
C:\USERS\MAGSHIMIM\DESKTOP\MAGSHIMIM\C LAUNGUAGH\SEMESTER 2\GIF FINAL PROJECT\GIF_PROJECT\GIF_PROJECT\X64\DEBUG\VC142.IDB
C:\USERS\MAGSHIMIM\DESKTOP\MAGSHIMIM\C LAUNGUAGH\SEMESTER 2\GIF FINAL PROJECT\GIF_PROJECT\GIF_PROJECT\X64\DEBUG\VIEW.OBJ
C:\USERS\MAGSHIMIM\DESKTOP\MAGSHIMIM\C LAUNGUAGH\SEMESTER 2\GIF FINAL PROJECT\GIF_PROJECT\GIF_PROJECT\X64\DEBUG\PROG.OBJ
^C:\USERS\MAGSHIMIM\DESKTOP\MAGSHIMIM\C LAUNGUAGH\SEMESTER 2\GIF FINAL PROJECT\GIF_PROJECT\GIF_PROJECT\PROG.C
C:\USERS\MAGSHIMIM\DESKTOP\MAGSHIMIM\C LAUNGUAGH\SEMESTER 2\GIF FINAL PROJECT\GIF_PROJECT\GIF_PROJECT\X64\DEBUG\VC142.PDB
^C:\USERS\MAGSHIMIM\DESKTOP\MAGSHIMIM\C LAUNGUAGH\SEMESTER 2\GIF FINAL PROJECT\GIF_PROJECT\GIF_PROJECT\VIEW.C
C:\USERS\MAGSHIMIM\DESKTOP\MAGSHIMIM\C LAUNGUAGH\SEMESTER 2\GIF FINAL PROJECT\GIF_PROJECT\GIF_PROJECT\X64\DEBUG\VC142.PDB
